SoCs/Lab/Lab2/cla/cla/cla.sim/sim_1/behav/xsim/cla_wave.vcd
$date
   Sun Dec  7 18:50:39 2025
$end

$version
  2024.2.0
  $dumpfile ("cla_wave.vcd") 
$end

$timescale
  1ps
$end

$scope module cla_tb $end
$var reg 32 ! a [31:0] $end
$var reg 32 " b [31:0] $end
$var reg 1 # cin $end
$var wire 32 $ sum [31:0] $end
$var reg 33 % expected_sum [32:0] $end
$var integer 32 & i [31:0] $end
$var integer 32 ' errors [31:0] $end
$scope module uut $end
$var wire 32 ( a [31:0] $end
$var wire 32 ) b [31:0] $end
$var wire 1 * cin $end
$var wire 32 $ sum [31:0] $end
$var wire 32 + g [31:0] $end
$var wire 32 , p [31:0] $end
$var wire 4 - G [3:0] $end
$var wire 4 . P [3:0] $end
$var wire 4 / C_blk [3:0] $end
$scope module bit_gp[0].unit $end
$var wire 1 0 a $end
$var wire 1 1 b $end
$var wire 1 2 g $end
$var wire 1 3 p $end
$upscope $end
$scope module bit_gp[1].unit $end
$var wire 1 4 a $end
$var wire 1 5 b $end
$var wire 1 6 g $end
$var wire 1 7 p $end
$upscope $end
$scope module bit_gp[2].unit $end
$var wire 1 8 a $end
$var wire 1 9 b $end
$var wire 1 : g $end
$var wire 1 ; p $end
$upscope $end
$scope module bit_gp[3].unit $end
$var wire 1 < a $end
$var wire 1 = b $end
$var wire 1 > g $end
$var wire 1 ? p $end
$upscope $end
$scope module bit_gp[4].unit $end
$var wire 1 @ a $end
$var wire 1 A b $end
$var wire 1 B g $end
$var wire 1 C p $end
$upscope $end
$scope module bit_gp[5].unit $end
$var wire 1 D a $end
$var wire 1 E b $end
$var wire 1 F g $end
$var wire 1 G p $end
$upscope $end
$scope module bit_gp[6].unit $end
$var wire 1 H a $end
$var wire 1 I b $end
$var wire 1 J g $end
$var wire 1 K p $end
$upscope $end
$scope module bit_gp[7].unit $end
$var wire 1 L a $end
$var wire 1 M b $end
$var wire 1 N g $end
$var wire 1 O p $end
$upscope $end
$scope module bit_gp[8].unit $end
$var wire 1 P a $end
$var wire 1 Q b $end
$var wire 1 R g $end
$var wire 1 S p $end
$upscope $end
$scope module bit_gp[9].unit $end
$var wire 1 T a $end
$var wire 1 U b $end
$var wire 1 V g $end
$var wire 1 W p $end
$upscope $end
$scope module bit_gp[10].unit $end
$var wire 1 X a $end
$var wire 1 Y b $end
$var wire 1 Z g $end
$var wire 1 [ p $end
$upscope $end
$scope module bit_gp[11].unit $end
$var wire 1 \ a $end
$var wire 1 ] b $end
$var wire 1 ^ g $end
$var wire 1 _ p $end
$upscope $end
$scope module bit_gp[12].unit $end
$var wire 1 ` a $end
$var wire 1 a b $end
$var wire 1 b g $end
$var wire 1 c p $end
$upscope $end
$scope module bit_gp[13].unit $end
$var wire 1 d a $end
$var wire 1 e b $end
$var wire 1 f g $end
$var wire 1 g p $end
$upscope $end
$scope module bit_gp[14].unit $end
$var wire 1 h a $end
$var wire 1 i b $end
$var wire 1 j g $end
$var wire 1 k p $end
$upscope $end
$scope module bit_gp[15].unit $end
$var wire 1 l a $end
$var wire 1 m b $end
$var wire 1 n g $end
$var wire 1 o p $end
$upscope $end
$scope module bit_gp[16].unit $end
$var wire 1 p a $end
$var wire 1 q b $end
$var wire 1 r g $end
$var wire 1 s p $end
$upscope $end
$scope module bit_gp[17].unit $end
$var wire 1 t a $end
$var wire 1 u b $end
$var wire 1 v g $end
$var wire 1 w p $end
$upscope $end
$scope module bit_gp[18].unit $end
$var wire 1 x a $end
$var wire 1 y b $end
$var wire 1 z g $end
$var wire 1 { p $end
$upscope $end
$scope module bit_gp[19].unit $end
$var wire 1 | a $end
$var wire 1 } b $end
$var wire 1 ~ g $end
$var wire 1 !! p $end
$upscope $end
$scope module bit_gp[20].unit $end
$var wire 1 "! a $end
$var wire 1 #! b $end
$var wire 1 $! g $end
$var wire 1 %! p $end
$upscope $end
$scope module bit_gp[21].unit $end
$var wire 1 &! a $end
$var wire 1 '! b $end
$var wire 1 (! g $end
$var wire 1 )! p $end
$upscope $end
$scope module bit_gp[22].unit $end
$var wire 1 *! a $end
$var wire 1 +! b $end
$var wire 1 ,! g $end
$var wire 1 -! p $end
$upscope $end
$scope module bit_gp[23].unit $end
$var wire 1 .! a $end
$var wire 1 /! b $end
$var wire 1 0! g $end
$var wire 1 1! p $end
$upscope $end
$scope module bit_gp[24].unit $end
$var wire 1 2! a $end
$var wire 1 3! b $end
$var wire 1 4! g $end
$var wire 1 5! p $end
$upscope $end
$scope module bit_gp[25].unit $end
$var wire 1 6! a $end
$var wire 1 7! b $end
$var wire 1 8! g $end
$var wire 1 9! p $end
$upscope $end
$scope module bit_gp[26].unit $end
$var wire 1 :! a $end
$var wire 1 ;! b $end
$var wire 1 <! g $end
$var wire 1 =! p $end
$upscope $end
$scope module bit_gp[27].unit $end
$var wire 1 >! a $end
$var wire 1 ?! b $end
$var wire 1 @! g $end
$var wire 1 A! p $end
$upscope $end
$scope module bit_gp[28].unit $end
$var wire 1 B! a $end
$var wire 1 C! b $end
$var wire 1 D! g $end
$var wire 1 E! p $end
$upscope $end
$scope module bit_gp[29].unit $end
$var wire 1 F! a $end
$var wire 1 G! b $end
$var wire 1 H! g $end
$var wire 1 I! p $end
$upscope $end
$scope module bit_gp[30].unit $end
$var wire 1 J! a $end
$var wire 1 K! b $end
$var wire 1 L! g $end
$var wire 1 M! p $end
$upscope $end
$scope module bit_gp[31].unit $end
$var wire 1 N! a $end
$var wire 1 O! b $end
$var wire 1 P! g $end
$var wire 1 Q! p $end
$upscope $end
$scope module block0 $end
$var wire 8 R! gin [7:0] $end
$var wire 8 S! pin [7:0] $end
$var wire 1 T! cin $end
$var wire 1 U! gout $end
$var wire 1 V! pout $end
$var wire 7 W! cout [6:0] $end
$var wire 1 X! g_low $end
$var wire 1 Y! p_low $end
$var wire 1 Z! g_high $end
$var wire 1 [! p_high $end
$var wire 1 \! c_mid $end
$var wire 3 ]! cout_low [2:0] $end
$var wire 3 ^! cout_high [2:0] $end
$scope module low_nibble $end
$var wire 4 _! gin [3:0] $end
$var wire 4 `! pin [3:0] $end
$var wire 1 T! cin $end
$var wire 1 X! gout $end
$var wire 1 Y! pout $end
$var wire 3 ]! cout [2:0] $end
$upscope $end
$scope module high_nibble $end
$var wire 4 a! gin [7:4] $end
$var wire 4 b! pin [7:4] $end
$var wire 1 \! cin $end
$var wire 1 Z! gout $end
$var wire 1 [! pout $end
$var wire 3 ^! cout [2:0] $end
$upscope $end
$upscope $end
$scope module block1 $end
$var wire 8 c! gin [15:8] $end
$var wire 8 d! pin [15:8] $end
$var wire 1 e! cin $end
$var wire 1 f! gout $end
$var wire 1 g! pout $end
$var wire 7 h! cout [13:7] $end
$var wire 1 i! g_low $end
$var wire 1 j! p_low $end
$var wire 1 k! g_high $end
$var wire 1 l! p_high $end
$var wire 1 m! c_mid $end
$var wire 3 n! cout_low [2:0] $end
$var wire 3 o! cout_high [2:0] $end
$scope module low_nibble $end
$var wire 4 p! gin [11:8] $end
$var wire 4 q! pin [11:8] $end
$var wire 1 e! cin $end
$var wire 1 i! gout $end
$var wire 1 j! pout $end
$var wire 3 n! cout [2:0] $end
$upscope $end
$scope module high_nibble $end
$var wire 4 r! gin [15:12] $end
$var wire 4 s! pin [15:12] $end
$var wire 1 m! cin $end
$var wire 1 k! gout $end
$var wire 1 l! pout $end
$var wire 3 o! cout [2:0] $end
$upscope $end
$upscope $end
$scope module block2 $end
$var wire 8 t! gin [23:16] $end
$var wire 8 u! pin [23:16] $end
$var wire 1 v! cin $end
$var wire 1 w! gout $end
$var wire 1 x! pout $end
$var wire 7 y! cout [20:14] $end
$var wire 1 z! g_low $end
$var wire 1 {! p_low $end
$var wire 1 |! g_high $end
$var wire 1 }! p_high $end
$var wire 1 ~! c_mid $end
$var wire 3 !" cout_low [2:0] $end
$var wire 3 "" cout_high [2:0] $end
$scope module low_nibble $end
$var wire 4 #" gin [19:16] $end
$var wire 4 $" pin [19:16] $end
$var wire 1 v! cin $end
$var wire 1 z! gout $end
$var wire 1 {! pout $end
$var wire 3 !" cout [2:0] $end
$upscope $end
$scope module high_nibble $end
$var wire 4 %" gin [23:20] $end
$var wire 4 &" pin [23:20] $end
$var wire 1 ~! cin $end
$var wire 1 |! gout $end
$var wire 1 }! pout $end
$var wire 3 "" cout [2:0] $end
$upscope $end
$upscope $end
$scope module block3 $end
$var wire 8 '" gin [31:24] $end
$var wire 8 (" pin [31:24] $end
$var wire 1 )" cin $end
$var wire 1 *" gout $end
$var wire 1 +" pout $end
$var wire 7 ," cout [27:21] $end
$var wire 1 -" g_low $end
$var wire 1 ." p_low $end
$var wire 1 /" g_high $end
$var wire 1 0" p_high $end
$var wire 1 1" c_mid $end
$var wire 3 2" cout_low [2:0] $end
$var wire 3 3" cout_high [2:0] $end
$scope module low_nibble $end
$var wire 4 4" gin [27:24] $end
$var wire 4 5" pin [27:24] $end
$var wire 1 )" cin $end
$var wire 1 -" gout $end
$var wire 1 ." pout $end
$var wire 3 2" cout [2:0] $end
$upscope $end
$scope module high_nibble $end
$var wire 4 6" gin [31:28] $end
$var wire 4 7" pin [31:28] $end
$var wire 1 1" cin $end
$var wire 1 /" gout $end
$var wire 1 0" pout $end
$var wire 3 3" cout [2:0] $end
$upscope $end
$upscope $end
$upscope $end
$scope task check_calc $end
$var reg 32 8" in_a [31:0] $end
$var reg 32 9" in_b [31:0] $end
$var reg 1 :" in_cin $end
$upscope $end
$upscope $end
$enddefinitions $end

#0
$dumpvars
b0 !
0!!
b0 !"
b0 "
0"!
b0 ""
0#
0#!
b0 #"
b0 $
0$!
b0 $"
bx %
0%!
b0 %"
bx &
0&!
b0 &"
b0 '
0'!
b0 '"
b0 (
0(!
b0 ("
b0 )
0)!
0)"
0*
0*!
0*"
b0 +
0+!
0+"
b0 ,
0,!
b0 ,"
b0 -
0-!
0-"
b0 .
0.!
0."
b0 /
0/!
0/"
00
00!
00"
01
01!
01"
02
02!
b0 2"
03
03!
b0 3"
04
04!
b0 4"
05
05!
b0 5"
06
06!
b0 6"
07
07!
b0 7"
08
08!
b0 8"
09
09!
b0 9"
0:
0:!
0:"
0;
0;!
0<
0<!
0=
0=!
0>
0>!
0?
0?!
0@
0@!
0A
0A!
0B
0B!
0C
0C!
0D
0D!
0E
0E!
0F
0F!
0G
0G!
0H
0H!
0I
0I!
0J
0J!
0K
0K!
0L
0L!
0M
0M!
0N
0N!
0O
0O!
0P
0P!
0Q
0Q!
0R
b0 R!
0S
b0 S!
0T
0T!
0U
0U!
0V
0V!
0W
b0 W!
0X
0X!
0Y
0Y!
0Z
0Z!
0[
0[!
0\
0\!
0]
b0 ]!
0^
b0 ^!
0_
b0 _!
0`
b0 `!
0a
b0 a!
0b
b0 b!
0c
b0 c!
0d
b0 d!
0e
0e!
0f
0f!
0g
0g!
0h
b0 h!
0i
0i!
0j
0j!
0k
0k!
0l
0l!
0m
0m!
0n
b0 n!
0o
b0 o!
0p
b0 p!
0q
b0 q!
0r
b0 r!
0s
b0 s!
0t
b0 t!
0u
b0 u!
0v
0v!
0w
0w!
0x
0x!
0y
b0 y!
0z
0z!
0{
0{!
0|
0|!
0}
0}!
0~
0~!
$end

#10000
b1010 !
b101 "
0"!
0#!
b1111 $
b0 %
0&!
0'!
b1010 (
b101 )
0*!
0+!
b1111 ,
0.!
0/!
00
11
02!
13
03!
14
05
06!
17
07!
08
b1010 8"
19
b101 9"
0:!
1;
0;!
1<
0=
0>!
1?
0?!
0@
0A
0B!
0C!
0D
0E
0F!
0G!
0H
0I
0J!
0K!
0L
0M
0N!
0O!
0P
0Q
b1111 S!
0T
0U
0X
0Y
1Y!
0\
0]
0`
b1111 `!
0a
0d
0e
0h
0i
0l
0m
0p
0q
0t
0u
0x
0y
0|
0}

#20000
b1100100 !
b11001000 "
0"!
1#
0#!
b100101101 $
b1111 %
0&!
0'!
b1100100 (
b11001000 )
1*
0*!
b1000000 +
0+!
b11101100 ,
b1 -
0.!
b11 /
0/!
00
01
02!
03
03!
04
05
06!
07
07!
18
b1100100 8"
09
b11001000 9"
0:!
1:"
0;!
0<
1=
0>!
0?!
0@
0A
0B!
0C!
1D
0E
0F!
1G
0G!
1H
1I
1J
0J!
1K
0K!
0L
1M
0N!
1O
0O!
0P
0Q
b1000000 R!
b11101100 S!
0T
1T!
0U
1U!
b1000000 W!
0X
0Y
0Y!
1Z!
0\
0]
b100 ^!
0`
b1100 `!
0a
b100 a!
b1110 b!
0d
0e
1e!
0h
0i
0l
0m
0p
0q
0t
0u
0x
0y
0|
0}

#30000
b11111111111111111111111111111111 !
1!!
b111 !"
b1 "
1"!
b111 ""
0#
0#!
b0 $
b1111 $"
b100101101 %
1%!
1&!
b1111 &"
0'!
b11111111111111111111111111111111 (
b11111111 ("
b1 )
1)!
1)"
0*
1*!
b1 +
0+!
1+"
b11111111111111111111111111111111 ,
b1111111 ,"
1-!
b1111 .
1.!
1."
b1110 /
0/!
10
10"
11
11!
11"
12
12!
b111 2"
13
03!
b111 3"
14
05
15!
b1111 5"
16!
17
07!
b1111 7"
18
b11111111111111111111111111111111 8"
09
19!
b1 9"
1:!
0:"
0;!
1<
0=
1=!
1>!
0?!
1@
0A
1A!
1B!
1C
0C!
1D
0E
1E!
1F!
0G!
1H
0I
1I!
0J
1J!
0K!
1L
0M
1M!
1N!
0O!
1P
0Q
1Q!
b1 R!
1S
b11111111 S!
1T
0T!
0U
1V!
1W
b1111111 W!
1X
1X!
0Y
1Y!
0Z!
1[
1[!
1\
1\!
0]
b111 ]!
b111 ^!
1_
b1 _!
1`
b1111 `!
0a
b0 a!
b1111 b!
1c
1d
b11111111 d!
0e
1g
1g!
1h
b1111111 h!
0i
1j!
1k
1l
1l!
0m
1m!
b111 n!
1o
b111 o!
1p
0q
b1111 q!
1s
b1111 s!
1t
0u
b11111111 u!
1v!
1w
1x
1x!
0y
b1111111 y!
1{
1{!
1|
0}
1}!
1~!

#40000
b111 !"
b0 "
b111 ""
1#
0#!
b0 $
b100000000000000000000000000000000 %
0'!
b0 )
1)"
1*
b0 +
0+!
b1111111 ,"
b0 -
b1111 /
0/!
01
11"
02
b111 2"
03!
b111 3"
05
07!
09
b0 9"
1:"
0;!
0=
0?!
0A
0C!
0E
0G!
0I
0K!
0M
0O!
0Q
b0 R!
1T!
0U
0U!
b1111111 W!
0X!
0Y
1\!
0]
b111 ]!
b111 ^!
b0 _!
0a
0e
1e!
b1111111 h!
0i
0m
1m!
b111 n!
b111 o!
0q
0u
1v!
0y
b1111111 y!
0}
1~!

#50000
b10101010101010101010101010101010 !
b0 !"
b1010101010101010101010101010101 "
0"!
b0 ""
0#
1#!
b11111111111111111111111111111111 $
1&!
0'!
b10101010101010101010101010101010 (
b1010101010101010101010101010101 )
0)"
0*
0*!
1+!
b0 ,"
1.!
b0 /
0/!
00
11
01"
02!
b0 2"
13!
b0 3"
14
05
16!
07!
08
b10101010101010101010101010101010 8"
19
b1010101010101010101010101010101 9"
0:!
0:"
1;!
1<
0=
1>!
0?!
0@
1A
0B!
1C!
1D
0E
1F!
0G!
0H
1I
0J!
1K!
1L
0M
1N!
0O!
0P
1Q
1T
0T!
0U
b0 W!
0X
1Y
1\
0\!
0]
b0 ]!
b0 ^!
0`
1a
1d
0e
0e!
0h
b0 h!
1i
1l
0m
0m!
b0 n!
b0 o!
0p
1q
1t
0u
0v!
0x
1y
b0 y!
1|
0}
0~!

#60000
b1111111111111111 !
0!!
b1 "
0"!
0#!
b10000000000000000 $
b0 $"
b11111111111111111111111111111111 %
0%!
0&!
b0 &"
0'!
b1111111111111111 (
b0 ("
b1 )
0)!
0*!
b1 +
0+!
0+"
b1111111111111111 ,
b1 -
0-!
b11 .
0.!
0."
b110 /
0/!
10
00"
11
01!
12
02!
03!
14
05
05!
b0 5"
06!
07!
b0 7"
18
b1111111111111111 8"
09
09!
b1 9"
0:!
0;!
1<
0=
0=!
0>!
0?!
1@
0A
0A!
0B!
0C!
1D
0E
0E!
0F!
0G!
1H
0I
0I!
0J!
0K!
1L
0M
0M!
0N!
0O!
1P
0Q
0Q!
b1 R!
1T
0U
1U!
b1111111 W!
1X
1X!
0Y
1\
1\!
0]
b111 ]!
b111 ^!
b1 _!
1`
0a
1d
0e
1e!
1h
b1111111 h!
0i
1l
0m
1m!
b111 n!
b111 o!
0p
0q
0s
0t
0u
b0 u!
1v!
0w
0x
0x!
0y
0{
0{!
0|
0}
0}!

#70000
b1100011101000011111100111100011 !
1!!
b1 !"
b1011000101110000000100100001011 "
0"!
b10 ""
1#!
b10111100010110100000001011101110 $
b1001 $"
b10000000000000000 %
1%!
b1010 %"
b0 &
1&!
b1011 &"
1'!
b1000000 '"
b1100011101000011111100111100011 (
1(!
b1111011 ("
b1011000101110000000100100001011 )
1)!
1)"
0*!
b1000000101000000000100100000011 +
0+!
b1111011101110011111100111101011 ,
b1000011 ,"
b110 -
b0 .
1.!
b1100 /
1/!
10
10!
11
11!
12!
b11 2"
03!
b100 3"
14
15
15!
b1011 5"
16
16!
b100 6"
07!
b111 7"
08
b1100011101000011111100111100011 8"
09
19!
b1011000101110000000100100001011 9"
0:!
0;
0;!
0<
1=
0>!
1?!
0@
0A
1A!
0B!
0C
1C!
1D
0E
1E!
1F!
0G!
1H
0I
1I!
1J!
1K!
1L
1L!
0M
1M!
0N!
0O!
1P
1Q
1R
b11 R!
b11101011 S!
0T
0U
0U!
0V!
0W
b11 W!
0X
0X!
0Y
0Y!
0[
0[!
1\
0\!
1]
b11 ]!
1^
b0 ^!
b11 _!
1`
b1011 `!
0a
b1110 b!
b1001 c!
1d
b11111001 d!
0e
0e!
1f!
0g!
1h
b1111001 h!
0i
1i!
0j!
1l
0m
b1 n!
1p
b1001 p!
0q
b1001 q!
1s
0t
b10100000 t!
0u
b10111001 u!
1w!
0x
0y
b100001 y!
0|
1|!
1}

#80000
b100110000111000010111111110110 !
b0 !"
b10001001111000010011000111000101 "
1"!
b0 ""
1#
0#!
b10101111111111010110000110111100 $
b1101 $"
b10111100010110100000001011101110 %
b0 %"
b1 &
0&!
b1111 &"
1'!
b0 '"
b100110000111000010111111110110 (
0(!
b10101111 ("
b10001001111000010011000111000101 )
0)"
1*
0*!
b10000111000100 +
1+!
b10101111111111010011111111110111 ,
b0 ,"
b1 -
1-!
0.!
1."
b11 /
1/!
00
00!
11
01"
02
02!
b0 2"
13!
b0 3"
14
05
b1111 5"
06
16!
b0 6"
07!
b1010 7"
18
b100110000111000010111111110110 8"
19
b10001001111000010011000111000101 9"
1:
1:!
1:"
1;
0;!
0<
0=
1=!
0>!
0?
1?!
1@
0A
0B!
1C
0C!
1D
0E
0E!
1F!
0G!
1H
1I
1J
0J!
0K!
1L
0L!
1M
0M!
1N
0N!
1O!
1P
1Q
1Q!
b11000100 R!
b11110111 S!
1T
1T!
0U
1U!
1W
b1000111 W!
1X
0Y
1Z!
1[
1[!
1\
0]
b111 ]!
0^
b100 ^!
b100 _!
0`
b111 `!
1a
b1100 a!
b1111 b!
b100001 c!
1d
b111111 d!
1e
1e!
1f
0f!
0h
b111111 h!
0i
1j!
0k
0l
0l!
0m
b111 n!
0o
b11 o!
0p
b1 p!
1q
b1111 q!
b10 r!
b11 s!
0t
b0 t!
0u
b11111101 u!
0v!
0w!
1x
0y
b0 y!
1{
1|
0|!
0}
1}!

#90000
b1110101100101101111100001000011 !
0!!
b111 !"
b1101101100000110010101110101000 "
1"!
0#!
b10 #"
b11100011000110100010001111101100 $
b111 $"
b10101111111111010110000110111100 %
b1000 %"
b10 &
0&!
b1001 &"
0'!
b1100101 '"
b1110101100101101111100001000011 (
b1111101 ("
b1101101100000110010101110101000 )
0)!
1)"
0*!
b1100101100000100010100000000000 +
0+!
b1111101100101111111101111101011 ,
b1111101 ,"
b110 -
0-!
1-"
1.!
0."
b1101 /
1/!
10
10!
01
11"
12!
b101 2"
13!
b111 3"
14
14!
b101 4"
05
b1101 5"
06!
b110 6"
07!
b111 7"
08
b1110101100101101111100001000011 8"
09
09!
b1101101100000110010101110101000 9"
0:
1:!
0;
1;!
0<
1<!
1=
0>!
1?
1?!
0@
0A
1B!
0C
0C!
0D
1E
1E!
1F!
1G!
1H
1H!
0I
0J
1J!
1K!
0L
1L!
1M
1M!
0N
0N!
0O!
0P
1Q
0Q!
0R
b0 R!
b11101011 S!
0T
1U
0U!
b11 W!
0X
0Y
0Z!
0[
0[!
1\
1]
b11 ]!
1^
b0 ^!
b0 _!
1`
b1011 `!
0a
b0 a!
b1110 b!
b101000 c!
1d
b11111011 d!
1e
0e!
1f!
1h
b1111000 h!
0i
0j!
1k
1k!
1l
1l!
0m
b0 n!
1o
b111 o!
0p
b1000 p!
1q
b1011 q!
b1111 s!
1t
b10000010 t!
1u
b10010111 u!
1v
1v!
1w
1w!
1x
0y
b111 y!
0|
1|!
0}
0}!

#100000
b10101100110000010001010000010111 !
1!!
b10010011100111110101101110011111 "
0"!
b1 ""
0#
1#!
b1 #"
b1000000011000000110111110110110 $
b1111 $"
b11100011000110100010001111101100 %
b11 &
0&!
b1101 &"
0'!
b10000000 '"
b10101100110000010001010000010111 (
b10111111 ("
b10010011100111110101101110011111 )
0*
1*!
1*"
b10000000100000010001000000010111 +
0+!
b10111111110111110101111110011111 ,
b111111 ,"
b1100 -
1-!
0-"
1.!
1."
b1000 /
1/!
1/"
10
11
12
02!
b111 2"
13!
b11 3"
14
04!
b0 4"
15
b1111 5"
16
06!
b1000 6"
17!
b1011 7"
18
b10101100110000010001010000010111 8"
19
19!
b10010011100111110101101110011111 9"
1:
1:!
0:"
1;
0;!
0<
0<!
1=
1>!
0?!
1@
1A
1B
0B!
1C
1C!
0D
0E
1F!
0G
0G!
0H
0H!
0I
0J!
0K
0K!
0L
0L!
1M
0M!
1N!
1O!
0P
1P!
1Q
1Q!
b10111 R!
b10011111 S!
0T
0T!
1U
b11111 W!
1X
1X!
0Y
1Y!
1[
0\
1\!
1]
b111 ]!
0^
b1 ^!
b111 _!
1`
b1111 `!
1a
b1 a!
1b
b1001 b!
b10000 c!
0d
b1011111 d!
0e
0f
0f!
0g
0h
b10000 h!
1i
0i!
1j!
0k!
0l
0l!
0m
0m!
0o
b1 o!
1p
b0 p!
1q
b1111 q!
1r
b1 r!
b101 s!
0t
b10000001 t!
1u
b11011111 u!
0v
0v!
0x
1y
b11111 y!
1z!
1{!
0|
1}
1~!

#110000
b1010001101111100111011011011000 !
b110 !"
b10001001001101100101001111100010 "
1"!
b11 ""
1#!
b110 #"
b11011010111101001100101010111010 $
1$!
b1110 $"
b101000000011000000110111110110110 %
b11 %"
b100 &
1&!
b1011 &"
1'!
b1 '"
b1010001101111100111011011011000 (
1(!
b11011001 ("
b10001001001101100101001111100010 )
1)!
0)"
0*!
0*"
b1001101100101001011000000 +
0+!
b11011001101111100111011111111010 ,
b1 ,"
b1 -
0-!
1.!
0."
b10 /
0/!
0/"
00
00!
01
01"
02
12!
b1 2"
03
13!
b0 3"
04
14!
b1 4"
15
b1001 5"
06
06!
b0 6"
07!
b1101 7"
08
b1010001101111100111011011011000 8"
09
09!
b10001001001101100101001111100010 9"
0:
0:!
0;
0;!
1<
0=
0=!
0>!
1?!
1@
0A
0B
1B!
0C!
0D
1E
0F!
1G
0G!
1H
1I
0I!
1J
1J!
1K
0K!
1L
1M
1M!
1N
0N!
1O!
0P
0P!
1Q
b11000000 R!
b11111010 S!
1T
1U
1U!
1V
b1000000 W!
1X
0X!
0Y
0Y!
1Z!
1[!
0\
0\!
0]
b0 ]!
b100 ^!
0_
b0 _!
1`
b1010 `!
1a
b1100 a!
b1111 b!
b1010010 c!
1d
b1110111 d!
0e
1e!
1g
1h
b1110111 h!
1i
1j
0j!
0l
0m
b111 n!
b111 o!
0p
b10 p!
0q
b111 q!
0r
b101 r!
0s
b111 s!
1t
b110110 t!
1u
b10111110 u!
1v
0w!
1x
1y
b111110 y!
1z
0{!
1|
0|!
0}

#120000
b1001111011100111110001010100101 !
0!!
b111 !"
b10110101111101110110011111111001 "
1"!
b111 ""
1#
1#!
b11 #"
b101011010110100101010011111 $
b111 $"
b11011010111101001100101010111010 %
b111 %"
b101 &
1&!
b1111 &"
1'!
b101 '"
b1001111011100111110001010100101 (
b11111111 ("
b10110101111101110110011111111001 )
1)"
1*
1*!
1*"
b101011100110110001010100001 +
1+!
1+"
b11111111111101111110011111111101 ,
1,!
b1111111 ,"
b1111 -
1-!
1-"
b1000 .
0.!
1."
b1111 /
1/!
10
10"
11
11"
12
12!
b111 2"
13
13!
b111 3"
04
b101 4"
05
b1111 5"
16!
07
07!
b1111 7"
18
b1001111011100111110001010100101 8"
09
19!
b10110101111101110110011111111001 9"
1:!
1:"
1;
1;!
0<
1<!
1=
1=!
1>!
0?!
0@
1A
0B!
1C!
1D
1E
1F
0F!
1G!
0H
1I
1I!
0J
1J!
0K!
1L
1M
0N!
1O!
0P
1Q
b10100001 R!
b11111101 S!
1T
1T!
1U
b1100001 W!
0X
1Y
0\
0]
b1 ]!
b110 ^!
b1 _!
0`
b1101 `!
0a
b1010 a!
0b
0c
b1100010 c!
1d
b11100111 d!
1e
1f
1f!
1h
b1100111 h!
1i
1k!
1l
0m
1o
b110 o!
1p
1q
1r
b110 r!
1s
b1110 s!
1t
b1110011 t!
1u
b11110111 u!
1v!
1w!
0x
1y
b1110111 y!
0z
0z!
0|
1|!
0}
1}!
0~!

#130000
b1010111000010101000000000110111 !
1!!
b111101101011101111011010001 "
0"!
b11 ""
1#!
b0 #"
b1011110110000000101111100001001 $
0$!
b1111 $"
b100000101011010110100101010011111 %
b0 %"
b110 &
0&!
b1011 &"
1'!
b111 '"
b1010111000010101000000000110111 (
0(!
b1010111 ("
b111101101011101111011010001 )
0)"
0*!
0*"
b111000000001000000000010001 +
0+!
0+"
b1010111101111111101111011110111 ,
0,!
b111 ,"
b11 -
0-!
0-"
b0 .
0.!
0."
b111 /
1/!
10
00"
11
01"
12!
13!
b0 3"
14
b111 4"
05
b111 5"
16!
17
17!
b101 7"
18
18!
b1010111000010101000000000110111 8"
09
b111101101011101111011010001 9"
1:!
1;!
0<
0=
0>!
0?
0?!
1@
1A
0A!
1B
1B!
0C!
1D
0E
0F
0F!
0G!
0H
1I
0I!
1J!
0K!
0L
1M
0N
0N!
0O!
0P
0Q
0Q!
b10001 R!
0S
b11110111 S!
0T
1U
0V
b1110111 W!
0X
1Y
0\
1]
b111 ]!
b111 ^!
1_
0`
b111 `!
1a
b1 a!
1c
b10000000 c!
0d
b11011110 d!
0e
0f
0g
0h
b0 h!
1i
0j
1l
1m
1n
b0 n!
b0 o!
0p
b0 p!
1q
b1110 q!
0r
b1000 r!
b1101 s!
1t
b0 t!
0u
b10111111 u!
0v
0w!
0x
1y
b111111 y!
1{!
1|
0|!
0}
0}!
1~!

#140000
b1001100001001000100100101110010 !
b1 !"
b1010111001010011100000101110111 "
0"!
b10 ""
0#
0#!
b10100011010011100000101011101001 $
b1101 $"
b1011110110000000101111100001001 %
0%!
b10 %"
b111 &
1&!
b10 &"
1'!
b1000100 '"
b1001100001001000100100101110010 (
1(!
b1011111 ("
b1010111001010011100000101110111 )
0*
0*!
b1000100001000000100000101110010 +
0+!
b1011111001011011100100101110111 ,
b1011100 ,"
b10 -
1-"
0.!
1."
b100 /
0/!
00
11
01!
11"
02
02!
b100 2"
13!
b101 3"
14
04!
b100 4"
15
b1111 5"
16
06!
b100 6"
17!
08
08!
b1001100001001000100100101110010 8"
19
b1010111001010011100000101110111 9"
1:!
0:"
1;!
0<
0=
1>!
0?!
1@
1A
1A!
0B!
1C!
1D
1E
1F
0F!
0G!
1H
1I
1J
1J!
1K!
0L
1L!
0M
0N!
0O
0O!
1P
1Q
1R
b1110010 R!
1S
b1110111 S!
0T
0T!
0U
0U!
0W
b1110110 W!
0X
0Y
0Z!
0[
0[!
1\
0]
b110 ]!
b10 _!
0`
0a
b111 a!
b111 b!
0c
b1000001 c!
0d
b11001001 d!
0e
0e!
1h
b1000001 h!
1i
1j
0l
1m
0n
b1 n!
b100 o!
0p
b1 p!
1q
b1001 q!
b100 r!
b1100 s!
0t
b100000 t!
0u
b101101 u!
0w
1x
0y
b100001 y!
0{!
0|
1}
0~!

#150000
b1010100110111010110111001001011 !
b100 !"
b101110001101000100000110101110 "
1"!
b111 ""
1#!
b100 #"
b10000011000100011010111111111001 $
1$!
b10100011010011100000101011101001 %
1%!
b1 %"
b1000 &
0&!
b1111 &"
1'!
b100 '"
b1010100110111010110111001001011 (
0(!
b1111110 ("
b101110001101000100000110101110 )
1)"
1*!
b100000101000100000000001010 +
0+!
b1111110111111010110111111101111 ,
b1111100 ,"
b100 -
1-!
1.!
0."
b1000 /
0/!
10
01
11!
02!
03!
b111 3"
14
15
05!
b1110 5"
06!
b0 6"
17!
b111 7"
08
b1010100110111010110111001001011 8"
19
b101110001101000100000110101110 9"
1:!
1;!
1<
1=
1>
0>!
1?
1?!
0@
0A
0B
1B!
0C
0C!
0D
1E
0F
0F!
1G!
1H
0I
1I!
0J
1J!
0K!
0L
0L!
1M
0N!
1O
0O!
0P
1Q
0R
b1010 R!
b11101111 S!
1T
0U
1W
b1110 W!
1X
1X!
0Y
1Y!
1[
1\
1\!
0]
b0 ^!
b1010 _!
0`
b1111 `!
0a
b0 a!
b1110 b!
b1000000 c!
1d
b1101111 d!
0e
0f!
1g
1h
b1000000 h!
1i
1j!
0k!
0l
0m
b0 n!
0o
1p
b0 p!
0q
b1111 q!
b110 s!
0t
b10100 t!
0u
b11111101 u!
0v!
1w!
1x
1y
b1111100 y!
1z
1z!
1|
1|!
0}
1}!
1~!

